go 1.15

module github.com/cri-o/cri-o

require (
	github.com/BurntSushi/toml v0.4.1
	github.com/Microsoft/go-winio v0.5.0
	github.com/blang/semver v3.5.1+incompatible
	github.com/containerd/cgroups v1.0.1
	github.com/containerd/containerd v1.5.5
	github.com/containerd/cri-containerd v1.19.0
	github.com/containerd/ttrpc v1.0.2
	github.com/containerd/typeurl v1.0.2
	github.com/containernetworking/cni v0.8.1
	github.com/containernetworking/plugins v0.9.1
	github.com/containers/buildah v1.22.3
	github.com/containers/common v0.43.2
	github.com/containers/conmon v2.0.20+incompatible
	github.com/containers/image/v5 v5.15.2
	github.com/containers/ocicrypt v1.1.2
	github.com/containers/podman/v3 v3.3.1
	github.com/containers/storage v1.34.1
	github.com/coreos/go-systemd/v22 v22.3.2
	github.com/cpuguy83/go-md2man v1.0.10
	github.com/creack/pty v1.1.15
	github.com/cri-o/ocicni v0.2.1-0.20210623033107-4ea5fb8752cf
	github.com/cyphar/filepath-securejoin v0.2.3
	github.com/docker/distribution v2.7.1+incompatible
	github.com/docker/go-units v0.4.0
	github.com/emicklei/go-restful v2.15.0+incompatible
	github.com/fsnotify/fsnotify v1.5.1
	github.com/go-logr/logr v1.1.0
	github.com/go-zoo/bone v1.3.0
	github.com/godbus/dbus/v5 v5.0.5
	github.com/gogo/protobuf v1.3.2
	github.com/golang/mock v1.6.0
	github.com/google/renameio v1.0.1
	github.com/google/uuid v1.3.0
	github.com/grpc-ecosystem/go-grpc-middleware v1.3.0
	github.com/intel/goresctrl v0.1.0
	github.com/json-iterator/go v1.1.11
	github.com/onsi/ginkgo v1.16.4
	github.com/onsi/gomega v1.16.0
	github.com/opencontainers/go-digest v1.0.0
	github.com/opencontainers/image-spec v1.0.2-0.20210708142037-083f635f2b04
	github.com/opencontainers/runc v1.0.2
	github.com/opencontainers/runtime-spec v1.0.3-0.20210709190330-896175883324
	github.com/opencontainers/runtime-tools v0.9.1-0.20210326182921-59cdde06764b
	github.com/opencontainers/selinux v1.8.4
	github.com/pkg/errors v0.9.1
	github.com/prometheus/client_golang v1.11.0
	github.com/psampaz/go-mod-outdated v0.8.0
	github.com/sirupsen/logrus v1.8.1
	github.com/soheilhy/cmux v0.1.5
	github.com/stretchr/testify v1.7.0
	github.com/syndtr/gocapability v0.0.0-20200815063812-42c35b437635
	github.com/urfave/cli/v2 v2.3.0
	github.com/vishvananda/netlink v1.1.1-0.20201029203352-d40f9887b852
	golang.org/x/net v0.0.0-20210525063256-abc453219eb5
	golang.org/x/sync v0.0.0-20210220032951-036812b2e83c
	golang.org/x/sys v0.0.0-20210630005230-0f9fa26af87c
	google.golang.org/grpc v1.40.0
	k8s.io/api v0.22.1
	k8s.io/apimachinery v0.22.1
	k8s.io/client-go v0.22.1
	k8s.io/cri-api v0.22.1
	k8s.io/klog/v2 v2.20.0
	k8s.io/kubernetes v1.22.1
	k8s.io/release v0.8.0
	k8s.io/utils v0.0.0-20210707171843-4b05e18ac7d9
	mvdan.cc/sh/v3 v3.3.1
	sigs.k8s.io/release-utils v0.3.0
	sigs.k8s.io/yaml v1.2.0
	sigs.k8s.io/zeitgeist v0.3.0
)

replace (
	google.golang.org/genproto => google.golang.org/genproto v0.0.0-20200117163144-32f20d992d24
	k8s.io/api => k8s.io/kubernetes/staging/src/k8s.io/api v0.0.0-20210804175619-c2b5237ccd9c
	k8s.io/apiextensions-apiserver => k8s.io/kubernetes/staging/src/k8s.io/apiextensions-apiserver v0.0.0-20210804175619-c2b5237ccd9c
	k8s.io/apimachinery => k8s.io/kubernetes/staging/src/k8s.io/apimachinery v0.0.0-20210804175619-c2b5237ccd9c
	k8s.io/apiserver => k8s.io/kubernetes/staging/src/k8s.io/apiserver v0.0.0-20210804175619-c2b5237ccd9c
	k8s.io/cli-runtime => k8s.io/kubernetes/staging/src/k8s.io/cli-runtime v0.0.0-20210804175619-c2b5237ccd9c
	k8s.io/client-go => k8s.io/kubernetes/staging/src/k8s.io/client-go v0.0.0-20210804175619-c2b5237ccd9c
	k8s.io/cloud-provider => k8s.io/kubernetes/staging/src/k8s.io/cloud-provider v0.0.0-20210804175619-c2b5237ccd9c
	k8s.io/cluster-bootstrap => k8s.io/kubernetes/staging/src/k8s.io/cluster-bootstrap v0.0.0-20210804175619-c2b5237ccd9c
	k8s.io/code-generator => k8s.io/kubernetes/staging/src/k8s.io/code-generator v0.0.0-20210804175619-c2b5237ccd9c
	k8s.io/component-base => k8s.io/kubernetes/staging/src/k8s.io/component-base v0.0.0-20210804175619-c2b5237ccd9c
	k8s.io/component-helpers => k8s.io/kubernetes/staging/src/k8s.io/component-helpers v0.0.0-20210804175619-c2b5237ccd9c
	k8s.io/controller-manager => k8s.io/kubernetes/staging/src/k8s.io/controller-manager v0.0.0-20210804175619-c2b5237ccd9c
	k8s.io/cri-api => k8s.io/kubernetes/staging/src/k8s.io/cri-api v0.0.0-20210804175619-c2b5237ccd9c
	k8s.io/csi-translation-lib => k8s.io/kubernetes/staging/src/k8s.io/csi-translation-lib v0.0.0-20210804175619-c2b5237ccd9c
	k8s.io/kube-aggregator => k8s.io/kubernetes/staging/src/k8s.io/kube-aggregator v0.0.0-20210804175619-c2b5237ccd9c
	k8s.io/kube-controller-manager => k8s.io/kubernetes/staging/src/k8s.io/kube-controller-manager v0.0.0-20210804175619-c2b5237ccd9c
	k8s.io/kube-proxy => k8s.io/kubernetes/staging/src/k8s.io/kube-proxy v0.0.0-20210804175619-c2b5237ccd9c
	k8s.io/kube-scheduler => k8s.io/kubernetes/staging/src/k8s.io/kube-scheduler v0.0.0-20210804175619-c2b5237ccd9c
	k8s.io/kubectl => k8s.io/kubernetes/staging/src/k8s.io/kubectl v0.0.0-20210804175619-c2b5237ccd9c
	k8s.io/kubelet => k8s.io/kubernetes/staging/src/k8s.io/kubelet v0.0.0-20210804175619-c2b5237ccd9c
	k8s.io/kubernetes => k8s.io/kubernetes v1.22.0
	k8s.io/legacy-cloud-providers => k8s.io/kubernetes/staging/src/k8s.io/legacy-cloud-providers v0.0.0-20210804175619-c2b5237ccd9c
	k8s.io/metrics => k8s.io/kubernetes/staging/src/k8s.io/metrics v0.0.0-20210804175619-c2b5237ccd9c
	k8s.io/mount-utils => k8s.io/kubernetes/staging/src/k8s.io/mount-utils v0.0.0-20210804175619-c2b5237ccd9c
	k8s.io/pod-security-admission => k8s.io/kubernetes/staging/src/k8s.io/pod-security-admission v0.0.0-20210804175619-c2b5237ccd9c
	k8s.io/sample-apiserver => k8s.io/kubernetes/staging/src/k8s.io/sample-apiserver v0.0.0-20210804175619-c2b5237ccd9c
)
